[
  "-",
  ".well-known",
  "404.html",
  "422.html",
  "500.html",
  "502.html",
  "503.html",
  "abuse_reports",
  "admin",
  "api",
  "apple-touch-icon-precomposed.png",
  "apple-touch-icon.png",
  "assets",
  "autocomplete",
  "dashboard",
  "deploy.html",
  "explore",
  "favicon.ico",
  "favicon.png",
  "files",
  "groups",
  "health_check",
  "help",
  "import",
  "invites",
  "jwt",
  "login",
  "oauth",
  "profile",
  "projects",
  "public",
  "robots.txt",
  "s",
  "search",
  "sent_notifications",
  "slash-command-logo.png",
  "snippets",
  "unsubscribes",
  "uploads",
  "users",
  "v2"
]